
[
 {
 "login": "myhduck",
 "id": 1555350,
 "avatar_url": "https://avatars2.githubusercontent.com/u/1555350?v=4",
 "gravatar_id": "",
 "url": "https://api.github.com/users/myhduck",
 "html_url": "https://github.com/myhduck",
 "followers_url": "https://api.github.com/users/myhduck/followers",
 "following_url": "https://api.github.com/users/myhduck/following{/other_user}",
 "gists_url": "https://api.github.com/users/myhduck/gists{/gist_id}",
 "starred_url": "https://api.github.com/users/myhduck/starred{/owner}{/repo}",
 "subscriptions_url": "https://api.github.com/users/myhduck/subscriptions",
 "organizations_url": "https://api.github.com/users/myhduck/orgs",
 "repos_url": "https://api.github.com/users/myhduck/repos",
 "events_url": "https://api.github.com/users/myhduck/events{/privacy}",
 "received_events_url": "https://api.github.com/users/myhduck/received_events",
 "type": "User",
 "site_admin": false,
 "name": "YOHAN MOON",
 "company": "home",
 "blog": "backtrack.woobi.co.kr",
 "location": "korea",
 "email": null,
 "hireable": null,
 "bio": null,
 "public_repos": 3,
 "public_gists": 0,
 "followers": 1,
 "following": 3,
 "created_at": "2012-03-20T05:15:06Z",
 "updated_at": "2016-02-27T01:51:58Z"
 },
 {
 "login": "trevor",
 "id": 5945,
 "avatar_url": "https://avatars0.githubusercontent.com/u/5945?v=4",
 "gravatar_id": "",
 "url": "https://api.github.com/users/trevor",
 "html_url": "https://github.com/trevor",
 "followers_url": "https://api.github.com/users/trevor/followers",
 "following_url": "https://api.github.com/users/trevor/following{/other_user}",
 "gists_url": "https://api.github.com/users/trevor/gists{/gist_id}",
 "starred_url": "https://api.github.com/users/trevor/starred{/owner}{/repo}",
 "subscriptions_url": "https://api.github.com/users/trevor/subscriptions",
 "organizations_url": "https://api.github.com/users/trevor/orgs",
 "repos_url": "https://api.github.com/users/trevor/repos",
 "events_url": "https://api.github.com/users/trevor/events{/privacy}",
 "received_events_url": "https://api.github.com/users/trevor/received_events",
 "type": "User",
 "site_admin": false,
 "name": "Trevor Wennblom",
 "company": null,
 "blog": "",
 "location": null,
 "email": null,
 "hireable": null,
 "bio": null,
 "public_repos": 65,
 "public_gists": 7,
 "followers": 22,
 "following": 41,
 "created_at": "2008-04-08T23:47:55Z",
 "updated_at": "2017-08-14T19:39:40Z"
 },
 {
 "login": "mattn",
 "id": 10111,
 "avatar_url": "https://avatars0.githubusercontent.com/u/10111?v=4",
 "gravatar_id": "",
 "url": "https://api.github.com/users/mattn",
 "html_url": "https://github.com/mattn",
 "followers_url": "https://api.github.com/users/mattn/followers",
 "following_url": "https://api.github.com/users/mattn/following{/other_user}",
 "gists_url": "https://api.github.com/users/mattn/gists{/gist_id}",
 "starred_url": "https://api.github.com/users/mattn/starred{/owner}{/repo}",
 "subscriptions_url": "https://api.github.com/users/mattn/subscriptions",
 "organizations_url": "https://api.github.com/users/mattn/orgs",
 "repos_url": "https://api.github.com/users/mattn/repos",
 "events_url": "https://api.github.com/users/mattn/events{/privacy}",
 "received_events_url": "https://api.github.com/users/mattn/received_events",
 "type": "User",
 "site_admin": false,
 "name": "mattn",
 "company": null,
 "blog": "http://mattn.kaoriya.net/",
 "location": "Osaka, Japan",
 "email": null,
 "hireable": null,
 "bio": "vim/vim/vim",
 "public_repos": 1255,
 "public_gists": 1879,
 "followers": 3559,
 "following": 1722,
 "created_at": "2008-05-13T01:17:13Z",
 "updated_at": "2017-10-09T04:09:40Z"
 }
 ]

